id;phone_number;date_of_birth;gender;title;specialization;money;notes
1;Officer Route;2021-09-27;MALE;Small systemic India;collaborative multi-byte;73905;(the efficient Infrastructure
2;Wooden scale;2021-09-28;FEMALE;incubate Alaska Regional;black;28360;User-friendly
3;Tuna alliance Lebane;2021-09-28;FEMALE;models backing silver;Loan Borders;18651;Rubber
4;deposit impactful;2021-09-28;FEMALE;project internet Polarised;Baby Manager;43387;Supervisor
5;optical Mouse;2021-09-28;FEMALE;Forint;Quality;96425;User-friendly Colon SAS
6;fuchsia Locks;2021-09-27;FEMALE;digital Dollar;back-end Tactics;48371;Associate
7;incubate red invoice;2021-09-28;MALE;deposit;Track data-warehouse Mouse;64867;Plastic Handcrafted neural
8;Vision-oriented Mark;2021-09-28;MALE;aggregate Facilitator;Investor Hawaii efficient;76009;Rubber Pitcairn
9;HTTP;2021-09-28;MALE;generating Frozen maximize;Direct North matrix;93443;green
10;Gorgeous;2021-09-28;MALE;back-end;transmitting Representative;31738;Nicaragua Generic Platinum
