id;message_text;message_date
1;Solutions Wooden;2021-09-28T00:04:48
2;payment experiences;2021-09-28T05:19:03
3;International;2021-09-28T05:06:52
4;index;2021-09-28T00:25:15
5;invoice;2021-09-28T11:58:53
6;sensor;2021-09-28T18:52:36
7;leverage bricks-and-clicks Operations;2021-09-28T04:29:11
8;solid plug-and-play;2021-09-28T20:18:25
9;Total Outdoors Brand;2021-09-27T22:39:44
10;convergence online Infrastructure;2021-09-28T09:20:40
