{
  "name": "Appointment",
  "fields": [
    {
      "fieldName": "appointmentDate",
      "fieldType": "Instant"
    },
    {
      "fieldName": "timeFrom",
      "fieldType": "String",
      "fieldValidateRules": ["pattern"],
      "fieldValidateRulesPattern": "^(0[0-9]|1[0-9]|2[0-3]):[0-5][0-9]$"
    },
    {
      "fieldName": "timeTo",
      "fieldType": "String",
      "fieldValidateRules": ["pattern"],
      "fieldValidateRulesPattern": "^(0[0-9]|1[0-9]|2[0-3]):[0-5][0-9]$"
    },
    {
      "fieldName": "appointmentStatus",
      "fieldType": "AppointmentStatus",
      "fieldValues": "APPROVED,REJECTED,PENDING"
    }
  ],
  "relationships": [
    {
      "relationshipType": "many-to-one",
      "otherEntityName": "user",
      "otherEntityRelationshipName": "appointment",
      "relationshipName": "patient"
    },
    {
      "relationshipType": "many-to-one",
      "otherEntityName": "user",
      "otherEntityRelationshipName": "appointment",
      "relationshipName": "doctor"
    }
  ],
  "entityTableName": "appointment",
  "dto": "no",
  "pagination": "pagination",
  "service": "serviceImpl",
  "jpaMetamodelFiltering": false,
  "fluentMethods": true,
  "readOnly": false,
  "embedded": false,
  "applications": ["emr"],
  "changelogDate": "20210928214731"
}
