id;user_id;specialization;institution_id;money
1;1;;;1000
2;2;Hirurg;1;1000
3;3;Internista;2;1000
4;4;Neurolog;1;1000
5;5;Doktor opšte medicine;1;1000
6;6;Infektolog;2;1000
7;7;Kardiolog;2;1000
8;8;;;1000
9;9;;;1000
10;10;;;1000
